…
    ## Parsed with column specification:
    ## cols(
    ##   site = col_character(),
    ##   species = col_character(),
    ##   latitude = col_double(),
    ##   longitude = col_double()
    ## )

Note that I load the dataset with `readr::read_csv()` instead of `utils::read.csv()`. This loads the coordinates in the `tibble` format, which prints more beatifully than a regular `data.frame`:

``` r
coord
```

    ## # A tibble: 34 x 4
    ##     site species latitude longitude
    ##    <chr>   <chr>    <dbl>     <dbl>
    ##  1    RH      WL 51.59920  10.00921
    ##  2    RH      ES 51.59129  10.00793
    ##  3    RH      SA 51.59129  10.00793
    ##  4    HR      TE 51.59420  10.07873
    ##  5    HR      HB 51.59420  10.07873
    ##  6    KB      SA 51.54180   9.80909
    ##  7    KB      ES 51.54180   9.80909
    ##  8    KB      HB 51.54180   9.80909
    ##  9    LB      TE 51.97858  10.43567
    ## 10    LB      SA 51.97938  10.43071
    ## # ... with 24 more rows
…
